<?xml version="1.0" encoding="UTF-8" standalone="no"?>
<!-- Created with Inkscape (http://www.inkscape.org/) -->

<svg
   width="192"
   height="192"
   viewBox="0 0 50.8 50.8"
   version="1.1"
   id="svg5"
   sodipodi:docname="icon.svg"
   inkscape:version="1.1.2 (0a00cf5, 2022-02-04)"
   xmlns:inkscape="http://www.inkscape.org/namespaces/inkscape"
   xmlns:sodipodi="http://sodipodi.sourceforge.net/DTD/sodipodi-0.dtd"
   xmlns="http://www.w3.org/2000/svg"
   xmlns:svg="http://www.w3.org/2000/svg">
  <sodipodi:namedview
     id="namedview7"
     pagecolor="#ffffff"
     bordercolor="#7f7f7f"
     borderopacity="1"
     inkscape:pageshadow="0"
     inkscape:pageopacity="1"
     inkscape:pagecheckerboard="true"
     inkscape:document-units="px"
     showgrid="false"
     units="px"
     width="1920px"
     inkscape:zoom="1.1623783"
     inkscape:cx="87.751119"
     inkscape:cy="106.67783"
     inkscape:window-width="1366"
     inkscape:window-height="711"
     inkscape:window-x="0"
     inkscape:window-y="345"
     inkscape:window-maximized="1"
     inkscape:current-layer="layer1" />
  <defs
     id="defs2" />
  <g
     inkscape:groupmode="layer"
     id="layer2"
     inkscape:label="BG">
    <text
       xml:space="preserve"
       style="font-style:normal;font-weight:normal;font-size:10.5833px;line-height:1.25;font-family:sans-serif;fill:#000000;fill-opacity:1;stroke:none;stroke-width:0.264583"
       x="18.681547"
       y="12.483131"
       id="text8729"><tspan
         sodipodi:role="line"
         id="tspan8727"
         style="stroke-width:0.264583"
         x="18.681547"
         y="12.483131" /></text>
  </g>
  <g
     inkscape:label="Layer 1"
     inkscape:groupmode="layer"
     id="layer1">
    <circle
       style="fill:#000000;fill-opacity:1;fill-rule:evenodd;stroke-width:1.32292;stroke-miterlimit:4;stroke-dasharray:none"
       id="path846-6-9-1"
       cx="25.4"
       cy="25.400002"
       r="25.4" />
    <circle
       style="fill:#ffffff;fill-opacity:1;fill-rule:evenodd;stroke-width:1.25402;stroke-miterlimit:4;stroke-dasharray:none"
       id="path846-3-7-1-94"
       cx="25.4"
       cy="25.400002"
       r="24.077084" />
    <text
       xml:space="preserve"
       style="font-style:normal;font-weight:normal;font-size:10.5833px;line-height:1.25;font-family:sans-serif;fill:#000000;fill-opacity:1;stroke:none;stroke-width:0.264583"
       x="68.292229"
       y="81.138351"
       id="text3128"><tspan
         sodipodi:role="line"
         id="tspan3126"
         style="stroke-width:0.264583"
         x="68.292229"
         y="81.138351" /></text>
    <text
       xml:space="preserve"
       style="font-style:normal;font-weight:normal;font-size:24.6944px;line-height:1.25;font-family:sans-serif;fill:#000000;fill-opacity:1;stroke:none;stroke-width:0.264583"
       x="18.016363"
       y="34.536911"
       id="text9957"><tspan
         sodipodi:role="line"
         id="tspan9955"
         style="font-weight:bold;font-size:24.6944px;stroke-width:0.264583"
         x="18.016363"
         y="34.536911">6</tspan></text>
  </g>
</svg>
