; Engine configuration file.
; It's best edited using the editor UI and not directly,
; since the parameters that go here are not all obvious.
;
; Format:
;   [section] ; section goes between []
;   param=value ; assign values to parameters

config_version=5

[application]

config/name="Bao la kiswahili"
run/main_scene="res://game/Game.tscn"
config/features=PackedStringArray("4.1", "GL Compatibility")
config/icon="res://icon_svg.svg"

[autoload]

E="*res://errors.gd"

[display]

window/size/viewport_width=1920
window/size/viewport_height=1080
window/stretch/mode="viewport"

[rendering]

renderer/rendering_method="mobile"
renderer/rendering_method.mobile="gl_compatibility"
textures/vram_compression/import_etc2_astc=true
